{"current_page":1,"data":[{"id":1765349,"invoice_id":8146979,"status":"published","message":"quick help from support and activation\nwas instant","rating":5,"is_automatic":false,"reply":null,"dispute_reason":null,"disputed_at":null,"replied_at":null,"created_at":"2025-11-24T22:41:07.000000Z","updated_at":"2025-11-24T22:41:07.000000Z","deleted_at":null,"invoice":{"id":8146979,"salt":"694a69a050838","email":"v19163431@gmail.com","unique_id":"694a69a050838-0000008146979","items":[{"id":6351842,"invoice_id":8146979,"product_id":500931,"variant_id":743512,"product":{"id":500931,"name":"Perm Spoofer","stock_count":0},"variant":{"id":743512,"name":"One Time License"}}]}},{"id":1765332,"invoice_id":8146947,"status":"published","message":"super fast delivery and easy activation\nprocess","rating":5,"is_automatic":false,"reply":null,"dispute_reason":null,"disputed_at":null,"replied_at":null,"created_at":"2025-11-24T22:38:06.000000Z","updated_at":"2025-11-24T22:38:06.000000Z","deleted_at":null,"invoice":{"id":8146947,"salt":"bf07aaf2dd154","email":"v19163431@gmail.com","unique_id":"bf07aaf2dd154-0000008146947","items":[{"id":6351806,"invoice_id":8146947,"product_id":501353,"variant_id":744279,"product":{"id":501353,"name":"Temp Spoofer","stock_count":0},"variant":{"id":744279,"name":"15 Days"}}]}},{"id":1765319,"invoice_id":8146900,"status":"published","message":"simple external with no blogt and clear\nmenu","rating":5,"is_automatic":false,"reply":null,"dispute_reason":null,"disputed_at":null,"replied_at":null,"created_at":"2025-11-24T22:35:54.000000Z","updated_at":"2025-11-24T22:35:54.000000Z","deleted_at":null,"invoice":{"id":8146900,"salt":"d6c219035b717","email":"v19163431@gmail.com","unique_id":"d6c219035b717-0000008146900","items":[{"id":6351757,"invoice_id":8146900,"product_id":501355,"variant_id":781050,"product":{"id":501355,"name":"Fortnite External","stock_count":0},"variant":{"id":781050,"name":"1 Day License"}}]}},{"id":1765311,"invoice_id":8146847,"status":"published","message":"used for a couple nights no errors no\ndrama","rating":5,"is_automatic":false,"reply":null,"dispute_reason":null,"disputed_at":null,"replied_at":null,"created_at":"2025-11-24T22:33:24.000000Z","updated_at":"2025-11-24T22:33:24.000000Z","deleted_at":null,"invoice":{"id":8146847,"salt":"e20f522c02f82","email":"v19163431@gmail.com","unique_id":"e20f522c02f82-0000008146847","items":[{"id":6351704,"invoice_id":8146847,"product_id":501353,"variant_id":744279,"product":{"id":501353,"name":"Temp Spoofer","stock_count":0},"variant":{"id":744279,"name":"15 Days"}}]}},{"id":1765289,"invoice_id":8146751,"status":"published","message":"set it up on my spare pc and it just works","rating":5,"is_automatic":false,"reply":null,"dispute_reason":null,"disputed_at":null,"replied_at":null,"created_at":"2025-11-24T22:28:12.000000Z","updated_at":"2025-11-24T22:28:12.000000Z","deleted_at":null,"invoice":{"id":8146751,"salt":"e8996f3fbeb8a","email":"v19163431@gmail.com","unique_id":"e8996f3fbeb8a-0000008146751","items":[{"id":6351607,"invoice_id":8146751,"product_id":500931,"variant_id":743512,"product":{"id":500931,"name":"Perm Spoofer","stock_count":0},"variant":{"id":743512,"name":"One Time License"}}]}},{"id":1765264,"invoice_id":8146713,"status":"published","message":"good option if you need something short term","rating":5,"is_automatic":false,"reply":null,"dispute_reason":null,"disputed_at":null,"replied_at":null,"created_at":"2025-11-24T22:25:40.000000Z","updated_at":"2025-11-24T22:25:40.000000Z","deleted_at":null,"invoice":{"id":8146713,"salt":"bb0d1ead1a208","email":"v19163431@gmail.com","unique_id":"bb0d1ead1a208-0000008146713","items":[{"id":6351569,"invoice_id":8146713,"product_id":501353,"variant_id":744279,"product":{"id":501353,"name":"Temp Spoofer","stock_count":0},"variant":{"id":744279,"name":"15 Days"}}]}},{"id":1765262,"invoice_id":8146685,"status":"published","message":"dev gave setup tips that improved results\na lot","rating":5,"is_automatic":false,"reply":null,"dispute_reason":null,"disputed_at":null,"replied_at":null,"created_at":"2025-11-24T22:23:04.000000Z","updated_at":"2025-11-24T22:23:04.000000Z","deleted_at":null,"invoice":{"id":8146685,"salt":"65168bef6d0bc","email":"v19163431@gmail.com","unique_id":"65168bef6d0bc-0000008146685","items":[{"id":6351539,"invoice_id":8146685,"product_id":501355,"variant_id":781050,"product":{"id":501355,"name":"Fortnite External","stock_count":0},"variant":{"id":781050,"name":"1 Day License"}}]}},{"id":1765255,"invoice_id":8146625,"status":"published","message":"support was polite and gave quick fixes","rating":5,"is_automatic":false,"reply":null,"dispute_reason":null,"disputed_at":null,"replied_at":null,"created_at":"2025-11-24T22:21:32.000000Z","updated_at":"2025-11-24T22:21:32.000000Z","deleted_at":null,"invoice":{"id":8146625,"salt":"8be737d59e4e2","email":"v19163431@gmail.com","unique_id":"8be737d59e4e2-0000008146625","items":[{"id":6351477,"invoice_id":8146625,"product_id":510008,"variant_id":760876,"product":{"id":510008,"name":"Streck","stock_count":0},"variant":{"id":760876,"name":"7 Days"}}]}},{"id":1765243,"invoice_id":8146579,"status":"published","message":"subscription is fair given how often they\nupdate","rating":5,"is_automatic":false,"reply":null,"dispute_reason":null,"disputed_at":null,"replied_at":null,"created_at":"2025-11-24T22:18:02.000000Z","updated_at":"2025-11-24T22:18:02.000000Z","deleted_at":null,"invoice":{"id":8146579,"salt":"620c9ecc11a92","email":"v19163431@gmail.com","unique_id":"620c9ecc11a92-0000008146579","items":[{"id":6351430,"invoice_id":8146579,"product_id":510009,"variant_id":760877,"product":{"id":510009,"name":"Blurred","stock_count":0},"variant":{"id":760877,"name":"Weekly"}}]}},{"id":1765222,"invoice_id":8146534,"status":"published","message":"had a timing question and they answered\u00ae\nclearly","rating":5,"is_automatic":false,"reply":null,"dispute_reason":null,"disputed_at":null,"replied_at":null,"created_at":"2025-11-24T22:15:20.000000Z","updated_at":"2025-11-24T22:15:20.000000Z","deleted_at":null,"invoice":{"id":8146534,"salt":"ac0364d42caea","email":"v19163431@gmail.com","unique_id":"ac0364d42caea-0000008146534","items":[{"id":6351381,"invoice_id":8146534,"product_id":501357,"variant_id":744290,"product":{"id":501357,"name":"Custom Dma Firmware","stock_count":0},"variant":{"id":744290,"name":"EAC\/BE Emulated"}}]}},{"id":1765205,"invoice_id":8146494,"status":"published","message":"fair price for the parts and firmware\nincluded","rating":5,"is_automatic":false,"reply":null,"dispute_reason":null,"disputed_at":null,"replied_at":null,"created_at":"2025-11-24T22:12:48.000000Z","updated_at":"2025-11-24T22:12:48.000000Z","deleted_at":null,"invoice":{"id":8146494,"salt":"04d0582797cb5","email":"v19163431@gmail.com","unique_id":"04d0582797cb5-0000008146494","items":[{"id":6351335,"invoice_id":8146494,"product_id":510740,"variant_id":762361,"product":{"id":510740,"name":"DMA Basic","stock_count":0},"variant":{"id":762361,"name":"\ud83d\udcbb DMA Bundle \u2013 Basic"}}]}},{"id":1765200,"invoice_id":8146456,"status":"published","message":"low maintenance once installed very chilll\nsolution","rating":5,"is_automatic":false,"reply":null,"dispute_reason":null,"disputed_at":null,"replied_at":null,"created_at":"2025-11-24T22:10:26.000000Z","updated_at":"2025-11-24T22:10:26.000000Z","deleted_at":null,"invoice":{"id":8146456,"salt":"7e441f4adedd2","email":"v19163431@gmail.com","unique_id":"7e441f4adedd2-0000008146456","items":[{"id":6351297,"invoice_id":8146456,"product_id":500931,"variant_id":743512,"product":{"id":500931,"name":"Perm Spoofer","stock_count":0},"variant":{"id":743512,"name":"One Time License"}}]}},{"id":1765183,"invoice_id":8146401,"status":"published","message":"support helped me when i messed up\nactivation","rating":5,"is_automatic":false,"reply":null,"dispute_reason":null,"disputed_at":null,"replied_at":null,"created_at":"2025-11-24T22:06:49.000000Z","updated_at":"2025-11-24T22:06:49.000000Z","deleted_at":null,"invoice":{"id":8146401,"salt":"2bb0afa28bcc6","email":"v19163431@gmail.com","unique_id":"2bb0afa28bcc6-0000008146401","items":[{"id":6351232,"invoice_id":8146401,"product_id":501353,"variant_id":744279,"product":{"id":501353,"name":"Temp Spoofer","stock_count":0},"variant":{"id":744279,"name":"15 Days"}}]}},{"id":1765162,"invoice_id":8146320,"status":"published","message":"small learning curve and then it was fine","rating":5,"is_automatic":false,"reply":null,"dispute_reason":null,"disputed_at":null,"replied_at":null,"created_at":"2025-11-24T22:02:47.000000Z","updated_at":"2025-11-24T22:02:47.000000Z","deleted_at":null,"invoice":{"id":8146320,"salt":"b6b0368c1f8dc","email":"v19163431@gmail.com","unique_id":"b6b0368c1f8dc-0000008146320","items":[{"id":6351150,"invoice_id":8146320,"product_id":501355,"variant_id":781050,"product":{"id":501355,"name":"Fortnite External","stock_count":0},"variant":{"id":781050,"name":"1 Day License"}}]}},{"id":1765156,"invoice_id":8146265,"status":"published","message":"felt like a custom job not a copy paste\nproduct","rating":5,"is_automatic":false,"reply":null,"dispute_reason":null,"disputed_at":null,"replied_at":null,"created_at":"2025-11-24T21:58:55.000000Z","updated_at":"2025-11-24T21:58:55.000000Z","deleted_at":null,"invoice":{"id":8146265,"salt":"4967a65637276","email":"v19163431@gmail.com","unique_id":"4967a65637276-0000008146265","items":[{"id":6351091,"invoice_id":8146265,"product_id":501357,"variant_id":744290,"product":{"id":501357,"name":"Custom Dma Firmware","stock_count":0},"variant":{"id":744290,"name":"EAC\/BE Emulated"}}]}},{"id":1765150,"invoice_id":8146129,"status":"published","message":"didnt cause any fps drops for me","rating":5,"is_automatic":false,"reply":null,"dispute_reason":null,"disputed_at":null,"replied_at":null,"created_at":"2025-11-24T21:56:12.000000Z","updated_at":"2025-11-24T21:56:12.000000Z","deleted_at":null,"invoice":{"id":8146129,"salt":"627482f14ed9c","email":"v19163431@gmail.com","unique_id":"627482f14ed9c-0000008146129","items":[{"id":6350949,"invoice_id":8146129,"product_id":510008,"variant_id":760876,"product":{"id":510008,"name":"Streck","stock_count":0},"variant":{"id":760876,"name":"7 Days"}}]}},{"id":1765118,"invoice_id":8146053,"status":"published","message":"price felt fair for the uptime i got","rating":5,"is_automatic":false,"reply":null,"dispute_reason":null,"disputed_at":null,"replied_at":null,"created_at":"2025-11-24T21:47:09.000000Z","updated_at":"2025-11-24T21:47:09.000000Z","deleted_at":null,"invoice":{"id":8146053,"salt":"3f5e635e2a584","email":"v19163431@gmail.com","unique_id":"3f5e635e2a584-0000008146053","items":[{"id":6350872,"invoice_id":8146053,"product_id":500931,"variant_id":743512,"product":{"id":500931,"name":"Perm Spoofer","stock_count":0},"variant":{"id":743512,"name":"One Time License"}}]}},{"id":1765097,"invoice_id":8145969,"status":"published","message":"matching files to my hardware avoided\nheadaches","rating":5,"is_automatic":false,"reply":null,"dispute_reason":null,"disputed_at":null,"replied_at":null,"created_at":"2025-11-24T21:40:55.000000Z","updated_at":"2025-11-24T21:40:55.000000Z","deleted_at":null,"invoice":{"id":8145969,"salt":"e726f52617f67","email":"v19163431@gmail.com","unique_id":"e726f52617f67-0000008145969","items":[{"id":6350785,"invoice_id":8145969,"product_id":501357,"variant_id":744290,"product":{"id":501357,"name":"Custom Dma Firmware","stock_count":0},"variant":{"id":744290,"name":"EAC\/BE Emulated"}}]}},{"id":1765087,"invoice_id":8145904,"status":"published","message":"value for short runs is pretty good","rating":5,"is_automatic":false,"reply":null,"dispute_reason":null,"disputed_at":null,"replied_at":null,"created_at":"2025-11-24T21:38:26.000000Z","updated_at":"2025-11-24T21:38:26.000000Z","deleted_at":null,"invoice":{"id":8145904,"salt":"98baba2799a2d","email":"v19163431@gmail.com","unique_id":"98baba2799a2d-0000008145904","items":[{"id":6350719,"invoice_id":8145904,"product_id":501353,"variant_id":744279,"product":{"id":501353,"name":"Temp Spoofer","stock_count":0},"variant":{"id":744279,"name":"15 Days"}}]}},{"id":1765071,"invoice_id":8145852,"status":"published","message":"doesnt eat fps and stays steady during\nplaytime","rating":5,"is_automatic":false,"reply":null,"dispute_reason":null,"disputed_at":null,"replied_at":null,"created_at":"2025-11-24T21:35:32.000000Z","updated_at":"2025-11-24T21:35:32.000000Z","deleted_at":null,"invoice":{"id":8145852,"salt":"5b5b3858db348","email":"v19163431@gmail.com","unique_id":"5b5b3858db348-0000008145852","items":[{"id":6350658,"invoice_id":8145852,"product_id":501355,"variant_id":781050,"product":{"id":501355,"name":"Fortnite External","stock_count":0},"variant":{"id":781050,"name":"1 Day License"}}]}}],"first_page_url":"https:\/\/api.sellauth.com\/v1\/shops\/187085\/feedbacks?page=1","from":1,"last_page":92,"last_page_url":"https:\/\/api.sellauth.com\/v1\/shops\/187085\/feedbacks?page=92","links":[{"url":null,"label":"&laquo; Previous","active":false},{"url":"https:\/\/api.sellauth.com\/v1\/shops\/187085\/feedbacks?page=1","label":"1","active":true},{"url":"https:\/\/api.sellauth.com\/v1\/shops\/187085\/feedbacks?page=2","label":"2","active":false},{"url":"https:\/\/api.sellauth.com\/v1\/shops\/187085\/feedbacks?page=3","label":"3","active":false},{"url":"https:\/\/api.sellauth.com\/v1\/shops\/187085\/feedbacks?page=4","label":"4","active":false},{"url":"https:\/\/api.sellauth.com\/v1\/shops\/187085\/feedbacks?page=5","label":"5","active":false},{"url":"https:\/\/api.sellauth.com\/v1\/shops\/187085\/feedbacks?page=6","label":"6","active":false},{"url":"https:\/\/api.sellauth.com\/v1\/shops\/187085\/feedbacks?page=7","label":"7","active":false},{"url":"https:\/\/api.sellauth.com\/v1\/shops\/187085\/feedbacks?page=8","label":"8","active":false},{"url":"https:\/\/api.sellauth.com\/v1\/shops\/187085\/feedbacks?page=9","label":"9","active":false},{"url":"https:\/\/api.sellauth.com\/v1\/shops\/187085\/feedbacks?page=10","label":"10","active":false},{"url":null,"label":"...","active":false},{"url":"https:\/\/api.sellauth.com\/v1\/shops\/187085\/feedbacks?page=91","label":"91","active":false},{"url":"https:\/\/api.sellauth.com\/v1\/shops\/187085\/feedbacks?page=92","label":"92","active":false},{"url":"https:\/\/api.sellauth.com\/v1\/shops\/187085\/feedbacks?page=2","label":"Next &raquo;","active":false}],"next_page_url":"https:\/\/api.sellauth.com\/v1\/shops\/187085\/feedbacks?page=2","path":"https:\/\/api.sellauth.com\/v1\/shops\/187085\/feedbacks","per_page":20,"prev_page_url":null,"to":20,"total":1834}